
{
    "locale_code":"es",
    "presstocontinue":"Presiona para empezar",
    "title":"TITULO",
    "hello":"HOLA ESPAÑOL",





    "tipoitem":"Tipos Item",
    "totalitems":"Total Items",
    "espaciosinv":"Espacios",
    
    "tips_recovery_items":"Consejo: Recuerda que los items que no guardes en el inventario, eventualmente desapareceran...",

        
    "inventaryinstruction1PressSomething":"Toca dos veces fuera del inventario para soltar el item",
    "inventaryinstruction2PressSomething":"Toca la casilla del inventario en la que quieras guardar tu item",
    "inventaryinstruction1NOTPressSomething":"Toca dos veces un item para guardarlo en el inventario",
    "inventaryinstruction2NOTPressSomething":"Toca un item para agarrarlo",

    "item_name_pan":"Pan",
    "item_data_pan":"Comida que recupera 1 punto.",
    "item_name_tomate":"Tomate",
    "item_data_tomate":"Comida que recupera 5 puntos.",

    "storeinstructionPressSomething":"Toca dos veces un item para comprarlo",

    "store_item_name_label":"Objeto",
    "store_item_info_label":"Info",
    "store_item_price_label":"Precio",
    "store_no_money":"No tienes coins disponibles, interactua con Joe's para conseguir.",
    "store_item_added":"Item añadido al inventario.",


    "store_default_data_name":"Toca en un item para ver su info.",
    "store_default_data_info":"Toca dos veces en un item para comprar."
      
}


